      real*8 atrac, adark, bet0, betinf, r, anisrad, Mtra, Mda
      character*16 darkmod, tracmod, anismod
      common /COMMONS/ atrac, adark, bet0, betinf, anisrad, r,
     &     Mtra, Mda, darkmod, tracmod, anismod
