      integer ncomps
      real*8 atrac(MAXCOMP), Mtratatr11(MAXCOMP), tracerp2(MAXCOMP)
      real*8 lMtr(MAXCOMP), rfidtr(MAXCOMP)
      character*16 tracmod(MAXCOMP)
      common /COMPONENTS/ atrac, Mtratatr11, tracerp2, tracmod
     & , lMtr, rfidtr, ncomps
c
c
c
