      integer nrbins, icsigr, MAXRBINS
      parameter (MAXRBINS=51)
      real*8 lnr(MAXRBINS), lsigmar(MAXRBINS), csigr(MAXRBINS,3)
	  real*8 phi(MAXRBINS), cphi(MAXRBINS,3)
      common /CSIG/ lnr, lsigmar, csigr, phi, cphi, icsigr, nrbins
c
c
c
