      integer nrbins, icsigr, kdimsigr
      integer MAXRBINS
      parameter (MAXRBINS=51)
      real*8 lnr(MAXRBINS), lsigmar(MAXRBINS)
c     real*8 csigr(MAXRBINS,3)
      real*8 csigr(4,MAXRBINS), breaksigr(MAXRBINS)
c	  real*8 phi(MAXRBINS), cphi(MAXRBINS,3)
c      common /CSIG/ lnr, lsigmar, csigr, phi, cphi, icsigr, nrbins
      common /CSIG/ lnr, lsigmar, csigr, icsigr, nrbins,
     &   breaksigr, kdimsigr
c
c
c
