      real*8 atracer, adark, anispar, ranis, anispar2, rad
      real*8 rcube, rfiddark, rmaxx, rhs, darkparam2
      real*8 Mtraceratatr11, Mdarkatad11, MBH11
      real*8 fourpideltarhocover3, rmaxdata, tracerparam2
      real*8 param2, rvir, gam
	  integer debugg
	  character*16 tracermod, darkmod, anismod, v3dmod
      common /MODEL/ atracer, adark, tracermod, tracerparam2, darkmod, 
     &  anismod, param2, 
     &  anispar, ranis, anispar2, 
     &  rcube, rfiddark, Mtraceratatr11, Mdarkatad11, 
     &  rmaxx, rad, MBH11, rhs, fourpideltarhocover3, rmaxdata, 
     &  darkparam2, rvir, gam, v3dmod, debugg
c
c
c
