      real*8 atracer, adark, tracermod, darkmod, anismod, anispar, rcube
      real*8 Mtraceratr11, Mdarkatr11
      common /MODPARS/ atracer, adark, tracermod, darkmod, anismod, 
     &  anispar, ranis, rcube, Mtracerata11, Mdarkata11
c
c
c
