      integer iatrmax, icatr, MAXATRACER
      parameter (MAXATRACER=101)
      real*8 latr(MAXATRACER), lnlikatr(MAXATRACER), catr(MAXATRACER,3)
      common /SPLINEATR/ latr, lnlikatr, catr, icatr, iatrmax
c
c
c
